{
	"info": {
		"_postman_id": "9ea6dd7d-e53b-442d-8bab-3a21bd576213",
		"name": "Worlds Best App",
		"description": "API tests for the worlds best app",
		"schema": "https://schema.getpostman.com/json/collection/v2.1.0/collection.json"
	},
	"item": [
		{
			"name": "Login Success",
			"event": [
				{
					"listen": "test",
					"script": {
						"id": "b5da03b8-9fc9-483f-a464-d77aef4ff3b3",
						"type": "text/javascript",
						"exec": [
							"pm.test(\"the username is returned\", function () {",
							"    var jsonData = pm.response.json();",
							"    pm.expect(jsonData.data.username).to.eql('Dr I Test');",
							"});"
						]
					}
				}
			],
			"request": {
				"method": "POST",
				"header": [
					{
						"key": "Content-Type",
						"value": "application/json"
					}
				],
				"body": {
					"mode": "raw",
					"raw": "{\n\t\"email\": \"test@drugdev.com\",\n\t\"password\": \"supers3cret\"\n}"
				},
				"url": {
					"raw": "{{base_url}}/api/login",
					"host": [
						"{{base_url}}"
					],
					"path": [
						"api",
						"login"
					]
				},
				"description": "Create succesfully login request"
			},
			"response": []
		},
		{
			"name": "Login Error",
			"event": [
				{
					"listen": "test",
					"script": {
						"id": "ba24cfa5-4ee3-4b4d-8ae6-b6d7517e6948",
						"exec": [
							"pm.test(\"return an array of errors\", function () {",
							"    var jsonData = pm.response.json();",
							"    pm.expect(jsonData.errors[0].title).to.eql('Credentials are incorrect');",
							"});",
							"",
							"pm.test(\"return an first error title is 'Credentials are incorrect' \", function () {",
							"    var jsonData = pm.response.json();",
							"    pm.expect(jsonData.errors[0].title).to.eql('Credentials are incorrect');",
							"});",
							"",
							"pm.test(\"Status code is 200\", function () {",
							"    pm.response.to.have.status(200);",
							"});"
						],
						"type": "text/javascript"
					}
				}
			],
			"request": {
				"method": "POST",
				"header": [
					{
						"key": "Content-Type",
						"value": "application/json"
					}
				],
				"body": {
					"mode": "raw",
					"raw": "{\n\t\"email\": \"test@drugdev.com\",\n\t\"password\": \"supers3cret1\"\n}"
				},
				"url": {
					"raw": "{{base_url}}/api/login",
					"host": [
						"{{base_url}}"
					],
					"path": [
						"api",
						"login"
					]
				},
				"description": "Create error login request"
			},
			"response": []
		}
	],
	"protocolProfileBehavior": {}
}